How to pick a random number from 1-10
…
We can formulate our redistribution problem problem in a similar way.

Representing the problem

We have a set of variables, \(x_{i,j}\), where each one encodes the proportion of probability redistributed from integer \(i\) (1 to 10) to integer \(j\) (1 to 10). So if \(x_{7,1} = 0.2\), then we would need to turn 20% of the responses that are 7 into a 1, instead.

variables <-
  crossing(from = probabilities$outcome,
           to   = probabilities$outcome) %>%
  mutate(name = glue::glue("x({from},{to})"),
         ix = row_number())

variables

## # A tibble: 100 x 4
##     from    to name       ix
##    <dbl> <dbl> <glue>  <int>
##  1     1     1 x(1,1)      1
##  2     1     2 x(1,2)      2
##  3     1     3 x(1,3)      3
##  4     1     4 x(1,4)      4
##  5     1     5 x(1,5)      5
##  6     1     6 x(1,6)      6
##  7     1     7 x(1,7)      7
##  8     1     8 x(1,8)      8
##  9     1     9 x(1,9)      9
## 10     1    10 x(1,10)    10
## #  with 90 more rows
…
